; Engine configuration file.
; It's best edited using the editor UI and not directly,
; since the parameters that go here are not all obvious.
;
; Format:
;   [section] ; section goes between []
;   param=value ; assign values to parameters

config_version=5

[application]

config/name="Window Solitair"
config/tags=PackedStringArray("4.2")
run/main_scene="res://main.tscn"
config/features=PackedStringArray("4.2", "C#", "Forward Plus")
boot_splash/show_image=false
config/icon="res://app_icon_small.png"

[autoload]

Deck="*res://Prefabs/deck.tscn"

[display]

window/size/viewport_width=400
window/size/viewport_height=250
window/size/initial_screen=1
window/subwindows/embed_subwindows=false
window/per_pixel_transparency/allowed=true

[dotnet]

project/assembly_name="Windows Solitair"

[filesystem]

import/blender/enabled=false

[rendering]

environment/defaults/default_clear_color=Color(0.243137, 0.243137, 0.243137, 0)
viewport/transparent_background=true
